{
  "info": {
    "_postman_id": "8221da76-e0ae-4bc3-bc54-98b5666aa06b",
    "name": "testeApp",
    "schema": "https://schema.getpostman.com/json/collection/v2.1.0/collection.json"
  },
  "item": [
    {
      "name": "Criar users",
      "request": {
        "method": "POST",
        "header": [],
        "body": {
          "mode": "raw",
          "raw": "{\r\n    \"id\": \"333\",\r\n    \"name\": \"Marcelo\",\r\n    \"email\":\"marcelo@email\"\r\n}",
          "options": {
            "raw": {
              "language": "json"
            }
          }
        },
        "url": {
          "raw": "localhost:8080/users",
          "host": [
            "localhost"
          ],
          "port": "8080",
          "path": [
            "users"
          ]
        }
      },
      "response": []
    },
    {
      "name": "Criar users2",
      "request": {
        "method": "POST",
        "header": [],
        "body": {
          "mode": "raw",
          "raw": "{\r\n    \"id\": \"555\",\r\n    \"name\": \"Diana\",\r\n    \"email\":\"diana@email\"\r\n}",
          "options": {
            "raw": {
              "language": "json"
            }
          }
        },
        "url": {
          "raw": "localhost:8080/users",
          "host": [
            "localhost"
          ],
          "port": "8080",
          "path": [
            "users"
          ]
        }
      },
      "response": []
    },
    {
      "name": "lista usersDTO",
      "request": {
        "method": "GET",
        "header": [],
        "url": {
          "raw": "localhost:8080/users",
          "host": [
            "localhost"
          ],
          "port": "8080",
          "path": [
            "users"
          ]
        }
      },
      "response": []
    },
    {
      "name": "users completo por id",
      "request": {
        "method": "GET",
        "header": [],
        "url": {
          "raw": "localhost:8080/users/333",
          "host": [
            "localhost"
          ],
          "port": "8080",
          "path": [
            "users",
            "333"
          ]
        }
      },
      "response": []
    },
    {
      "name": "Deletar user por Id",
      "request": {
        "method": "DELETE",
        "header": [],
        "body": {
          "mode": "raw",
          "raw": ""
        },
        "url": {
          "raw": "localhost:8080/users/555",
          "host": [
            "localhost"
          ],
          "port": "8080",
          "path": [
            "users",
            "555"
          ]
        }
      },
      "response": []
    },
    {
      "name": "Update user por Id",
      "request": {
        "method": "PUT",
        "header": [],
        "body": {
          "mode": "raw",
          "raw": "{\r\n    \"name\": \"Paulo\"\r\n\r\n}",
          "options": {
            "raw": {
              "language": "json"
            }
          }
        },
        "url": {
          "raw": "http://localhost:8080/users/333",
          "protocol": "http",
          "host": [
            "localhost"
          ],
          "port": "8080",
          "path": [
            "users",
            "333"
          ]
        }
      },
      "response": []
    },
    {
      "name": "Consulta digito unico SEM user",
      "request": {
        "method": "GET",
        "header": [],
        "url": {
          "raw": "http://localhost:8080/consulta/845365468742378315678975134567864/9845",
          "protocol": "http",
          "host": [
            "localhost"
          ],
          "port": "8080",
          "path": [
            "consulta",
            "845365468742378315678975134567864",
            "9845"
          ]
        }
      },
      "response": []
    },
    {
      "name": "Consulta digito unico COM user",
      "request": {
        "method": "GET",
        "header": [],
        "url": {
          "raw": "http://localhost:8080/users/333/consulta/3242354",
          "protocol": "http",
          "host": [
            "localhost"
          ],
          "port": "8080",
          "path": [
            "users",
            "333",
            "consulta",
            "3242354"
          ]
        }
      },
      "response": []
    },
    {
      "name": "Lista de consulta por user",
      "request": {
        "method": "GET",
        "header": [],
        "url": {
          "raw": "http://localhost:8080/users/333/consulta",
          "protocol": "http",
          "host": [
            "localhost"
          ],
          "port": "8080",
          "path": [
            "users",
            "333",
            "consulta"
          ]
        }
      },
      "response": []
    },
    {
      "name": "Cache das Consultas",
      "request": {
        "method": "GET",
        "header": [],
        "url": {
          "raw": "http://localhost:8080/consulta/cache",
          "protocol": "http",
          "host": [
            "localhost"
          ],
          "port": "8080",
          "path": [
            "consulta",
            "cache"
          ]
        }
      },
      "response": []
    },
    {
      "name": "Consulta digito unico Test Cache (executar 2x)",
      "request": {
        "method": "GET",
        "header": [],
        "url": {
          "raw": "http://localhost:8080/consulta/45687456812357896723135796784538687456874568123578967231357967845368745681235789672313579678453687456812357896723135796784536874568123578967231357967845/12472",
          "protocol": "http",
          "host": [
            "localhost"
          ],
          "port": "8080",
          "path": [
            "consulta",
            "45687456812357896723135796784538687456874568123578967231357967845368745681235789672313579678453687456812357896723135796784536874568123578967231357967845",
            "12472"
          ]
        }
      },
      "response": []
    }
  ]
}